bigdata_l2-github – Social Data Analysis and Visualization
…
values_to: Name of the new column that will hold the data values.

Convert our movie dataframe to long

# Convert to long format
long_df <- df |> 
  pivot_longer(
    cols = China_Box_Office_Gross:Total_Worldwide_Gross,
    names_to = "Box_Office_Type",
    values_to = "Gross"
  )

print(long_df)

## # A tibble: 21 × 5
##    Movie_Title          Release_Date     Profit Box_Office_Type            Gross
##    <chr>                <chr>             <dbl> <chr>                      <dbl>
##  1 YOLO                 January 2024  169597304 China_Box_Office_Gross 479597304
##  2 YOLO                 January 2024  169597304 US_Box_Office_Gross    310000000
##  3 YOLO                 January 2024  169597304 Total_Worldwide_Gross  479597304
##  4 Successor            February 2024 189612890 China_Box_Office_Gross 469612890
##  5 Successor            February 2024 189612890 US_Box_Office_Gross    280000000
##  6 Successor            February 2024 189612890 Total_Worldwide_Gross  469612890
##  7 Pegasus 2            March 2024    176930272 China_Box_Office_Gross 466930272
##  8 Pegasus 2            March 2024    176930272 US_Box_Office_Gross    290000000
##  9 Pegasus 2            March 2024    176930272 Total_Worldwide_Gross  466930272
## 10 Deadpool & Wolverine July 2024     412000000 China_Box_Office_Gross 450000000
## # ℹ 11 more rows
…
