bigdata_l7-github – Social Data Analysis and Visualization
…
2.3 Sentiment Analysis with Dictionary Methods

To understand how different sentiment analysis lexicons classify text, we will compare results from multiple dictionaries, including Bing, AFINN, and NRC. Each lexicon provides different insights:

Bing: Binary classification (positive/negative sentiment).

AFINN: Numeric scores for sentiment intensity.

NRC: Categorizes words into emotional dimensions (anger, joy, fear, etc.).

Note: For AFINN and NRC you need to select 1 in your console when prompted

get_sentiments("afinn")

## # A tibble: 2,477 × 2
##    word       value
##    <chr>      <dbl>
##  1 abandon       -2
##  2 abandoned     -2
##  3 abandons      -2
##  4 abducted      -2
##  5 abduction     -2
##  6 abductions    -2
##  7 abhor         -3
##  8 abhorred      -3
##  9 abhorrent     -3
## 10 abhors        -3
## # ℹ 2,467 more rows

get_sentiments("bing")

## # A tibble: 6,786 × 2
##    word        sentiment
##    <chr>       <chr>    
##  1 2-faces     negative 
##  2 abnormal    negative 
##  3 abolish     negative 
##  4 abominable  negative 
##  5 abominably  negative 
##  6 abominate   negative 
##  7 abomination negative 
##  8 abort       negative 
##  9 aborted     negative 
## 10 aborts      negative 
## # ℹ 6,776 more rows

get_sentiments("nrc")

## # A tibble: 13,872 × 2
##    word        sentiment
##    <chr>       <chr>    
##  1 abacus      trust    
##  2 abandon     fear     
##  3 abandon     negative 
##  4 abandon     sadness  
##  5 abandoned   anger    
##  6 abandoned   fear     
##  7 abandoned   negative 
##  8 abandoned   sadness  
##  9 abandonment anger    
## 10 abandonment fear     
## # ℹ 13,862 more rows
…
