bigdata_l9-github – Social Data Analysis and Visualization
…
In order to get the highest probabilities for each topic, we can use slice_max():

5.3 Top 10 Words per Topic

# Get top 10 words for each topic
lda_top_terms <- lda_topics |> 
  group_by(topic) |> 
  slice_max(beta, n = 10) |> 
  ungroup() |> 
  arrange(topic, -beta)

# View the results
print(lda_top_terms)

## # A tibble: 50 × 3
##    topic term     beta
##    <int> <chr>   <dbl>
##  1     1 song  0.0435 
##  2     1 love  0.0294 
##  3     1 good  0.0285 
##  4     1 album 0.0237 
##  5     1 songs 0.0227 
##  6     1 lol   0.0121 
##  7     1 happy 0.0108 
##  8     1 video 0.0106 
##  9     1 great 0.0102 
## 10     1 live  0.00914
## # ℹ 40 more rows
…
