…
    ## # A tibble: 3 × 3
    ##       x y     z    
    ##   <dbl> <chr> <lgl>
    ## 1     1 a     TRUE 
    ## 2     2 b     FALSE
    ## 3     3 c     TRUE

``` r
# Convert data frame to tibble
as_tibble(mtcars)
```

    ## # A tibble: 32 × 11
    ##      mpg   cyl  disp    hp  drat    wt  qsec    vs    am  gear  carb
    ##    <dbl> <dbl> <dbl> <dbl> <dbl> <dbl> <dbl> <dbl> <dbl> <dbl> <dbl>
    ##  1  21       6  160    110  3.9   2.62  16.5     0     1     4     4
    ##  2  21       6  160    110  3.9   2.88  17.0     0     1     4     4
    ##  3  22.8     4  108     93  3.85  2.32  18.6     1     1     4     1
    ##  4  21.4     6  258    110  3.08  3.22  19.4     1     0     3     1
    ##  5  18.7     8  360    175  3.15  3.44  17.0     0     0     3     2
    ##  6  18.1     6  225    105  2.76  3.46  20.2     1     0     3     1
    ##  7  14.3     8  360    245  3.21  3.57  15.8     0     0     3     4
    ##  8  24.4     4  147.    62  3.69  3.19  20       1     0     4     2
    ##  9  22.8     4  141.    95  3.92  3.15  22.9     1     0     4     2
    ## 10  19.2     6  168.   123  3.92  3.44  18.3     1     0     4     4
    ## # ℹ 22 more rows
…
``` r
# Convert movie data to long format
long_df <- df |> 
  pivot_longer(
    cols = China_Box_Office_Gross:Total_Worldwide_Gross,
    names_to = "Box_Office_Type",
    values_to = "Gross"
  )

print(long_df)
```

    ## # A tibble: 21 × 5
    ##    Movie_Title          Release_Date     Profit Box_Office_Type            Gross
    ##    <chr>                <chr>             <dbl> <chr>                      <dbl>
    ##  1 YOLO                 January 2024  169597304 China_Box_Office_Gross 479597304
    ##  2 YOLO                 January 2024  169597304 US_Box_Office_Gross    310000000
    ##  3 YOLO                 January 2024  169597304 Total_Worldwide_Gross  479597304
    ##  4 Successor            February 2024 189612890 China_Box_Office_Gross 469612890
    ##  5 Successor            February 2024 189612890 US_Box_Office_Gross    280000000
    ##  6 Successor            February 2024 189612890 Total_Worldwide_Gross  469612890
    ##  7 Pegasus 2            March 2024    176930272 China_Box_Office_Gross 466930272
    ##  8 Pegasus 2            March 2024    176930272 US_Box_Office_Gross    290000000
    ##  9 Pegasus 2            March 2024    176930272 Total_Worldwide_Gross  466930272
    ## 10 Deadpool & Wolverine July 2024     412000000 China_Box_Office_Gross 450000000
    ## # ℹ 11 more rows
…
