…
``` r
# Find outliers using z-score > 2
z_outliers <- student_data |> 
  filter(abs(Physical_Activity_Hours_Per_Day_z) > 2)

cat("Outliers (|z| > 2):", nrow(z_outliers), "\n")
```

    ## Outliers (|z| > 2): 60

``` r
print(z_outliers |> select(Student_ID, Stress_Level, Physical_Activity_Hours_Per_Day, Physical_Activity_Hours_Per_Day_z))
```

    ## # A tibble: 60 × 4
    ##    Student_ID Stress_Level Physical_Activity_Hours_Per_…¹ Physical_Activity_Ho…²
    ##         <dbl> <chr>                                 <dbl>                  <dbl>
    ##  1         63 High                                   13                     3.45
    ##  2        126 Low                                    10.7                   2.53
    ##  3        172 Low                                    12.4                   3.21
    ##  4        187 Low                                     9.5                   2.06
    ##  5        251 Low                                    11.2                   2.73
    ##  6        254 High                                    9.7                   2.14
    ##  7        269 Moderate                               11                     2.65
    ##  8        284 Moderate                                9.8                   2.18
    ##  9        323 High                                   11                     2.65
    ## 10        381 Low                                     9.8                   2.18
    ## # ℹ 50 more rows
    ## # ℹ abbreviated names: ¹​Physical_Activity_Hours_Per_Day,
    ## #   ²​Physical_Activity_Hours_Per_Day_z
…
